{
    "build_task": {
        "chroot_name": "fedora-33-aarch64",
        "result_dir_url": "https://download.copr/results/foobar/foo/fedora-33-aarch64/01234-kernel/",
        "started_on": 1609603253,
        "build_id": 1234,
        "git_hash": "fc15f63385ae375294dd158bbd9123154f6da5f0",
        "state": "succeeded",
        "ended_on": 1609611747
    },
    "_links": {
        "project": {
            "href": "/api_2/projects/5434"
        },
        "build": {
            "href": "/api_2/builds/1234"
        },
        "self": {
            "href": "/api_2/build_tasks/1234/fedora-33-aarch64"
        }
    }
}
