{
    "id": 841324,
    "status": "success",
    "stage": "merge",
    "name": "merge",
    "ref": "mainline.kernel.org",
    "tag": false,
    "coverage": null,
    "allow_failure": false,
    "created_at": "2020-05-14T20:29:50.801Z",
    "started_at": "2020-05-14T20:31:23.067Z",
    "finished_at": "2020-05-14T20:33:09.808Z",
    "duration": 106.740939,
    "user": {
        "id": 34,
        "name": "CKI Bot",
        "username": "cki-bot",
        "state": "active",
        "avatar_url": "https://secure.gravatar.com/avatar/1d5811382e7ef0cd8f30ebbe1c252eba?s=80&d=identicon",
        "web_url": "https://gitlab/cki-bot",
        "created_at": "2018-11-29T14:12:44.544Z",
        "bio": "",
        "location": "",
        "public_email": "",
        "skype": "",
        "linkedin": "",
        "twitter": "",
        "website_url": "",
        "organization": "",
        "job_title": ""
    },
    "commit": {
        "id": "c783244cf6a6bacc63f70872cf4bff0d2aabc74a",
        "short_id": "c783244c",
        "created_at": "2020-05-14T20:29:48.000+00:00",
        "parent_ids": [
            "349ea594b98bd682bb1d7b6e96b03109e67ac71f"
        ],
        "title": "Baseline: mainline.kernel.org master:decd6167bf4f",
        "message": "Baseline: mainline.kernel.org master:decd6167bf4f\n\ntree_name = upstream\nkernel_type = upstream\nbuilder_image = registry.gitlab.com/cki-project/containers/builder-fedora\nconfig_target = olddefconfig\nrequire_manual_review = False\nreport_types = email\nreport_template = limited\nmail_from = CKI Project <cki-project@redhat.com>\nmail_add_maintainers_to = cc\ntest_set = kt1\ngit_url = https://git.kernel.org/pub/scm/linux/kernel/git/torvalds/linux.git\ncki_pipeline_branch = mainline.kernel.org\ncki_project = cki-project/cki-pipeline\ncommit_hash = decd6167bf4f6bec1284006d0522381b44660df3\ncki_pipeline_id = d660494abb0f4b9931a4ea6dac22f8e35c725abd3fb76d595f768db93ae6cbc5\nbranch = master\nname = mainline.kernel.org\ncki_pipeline_type = baseline\nmake_target = targz-pkg\ntitle = Baseline: mainline.kernel.org master:decd6167bf4f\nmail_bcc = mail@redhat.com",
        "author_name": "CKI Bot",
        "author_email": "34-cki-bot@users.noreply.gitlab",
        "authored_date": "2020-05-14T20:29:48.000+00:00",
        "committer_name": "CKI Bot",
        "committer_email": "34-cki-bot@users.noreply.gitlab",
        "committed_date": "2020-05-14T20:29:48.000+00:00",
        "web_url": "https://gitlab/cki-project/cki-pipeline/-/commit/c783244cf6a6bacc63f70872cf4bff0d2aabc74a"
    },
    "pipeline": {
        "id": 567899,
        "sha": "c783244cf6a6bacc63f70872cf4bff0d2aabc74a",
        "ref": "mainline.kernel.org",
        "status": "success",
        "created_at": "2020-05-14T20:29:50.757Z",
        "updated_at": "2020-05-15T01:36:22.952Z",
        "web_url": "https://gitlab/cki-project/cki-pipeline/pipelines/567899"
    },
    "web_url": "https://gitlab/cki-project/cki-pipeline/-/jobs/841324",
    "artifacts_file": {
        "filename": "artifacts.zip",
        "size": 175880462
    },
    "artifacts": [
        {
            "file_type": "archive",
            "size": 175880462,
            "filename": "artifacts.zip",
            "file_format": "zip"
        },
        {
            "file_type": "metadata",
            "size": 214,
            "filename": "metadata.gz",
            "file_format": "gzip"
        },
        {
            "file_type": "trace",
            "size": 8355,
            "filename": "job.log",
            "file_format": null
        }
    ],
    "runner": {
        "id": 22,
        "description": "cki-openshift-low",
        "ip_address": "10.1.2.3",
        "active": true,
        "is_shared": false,
        "name": null,
        "online": true,
        "status": "online"
    },
    "artifacts_expire_at": "2020-05-21T20:33:09.428Z"
}
